%YAML 1.1
%TAG !u! tag:unity3d.com,2011:
--- !u!114 &11400000
MonoBehaviour:
  m_ObjectHideFlags: 0
  m_CorrespondingSourceObject: {fileID: 0}
  m_PrefabInstance: {fileID: 0}
  m_PrefabAsset: {fileID: 0}
  m_GameObject: {fileID: 0}
  m_Enabled: 1
  m_EditorHideFlags: 0
  m_Script: {fileID: 11500000, guid: c3f3b576d1c44b88ae6a8184d2bfbc26, type: 3}
  m_Name: House Data
  m_EditorClassIdentifier: 
  buildingType: 1
  prefab: {fileID: 2699120673269493026, guid: ea3a3f3e8e5d66a47a1eebef9e16a9be, type: 3}
  buildingName: House
  requiredCellContent: 1
  size: {x: 6, y: 6}
  entrancePivot: {x: 7, y: 0, z: 0}
  requiredResources:
  - type: 0
    amount: 100
