%YAML 1.1
%TAG !u! tag:unity3d.com,2011:
--- !u!114 &11400000
MonoBehaviour:
  m_ObjectHideFlags: 0
  m_CorrespondingSourceObject: {fileID: 0}
  m_PrefabInstance: {fileID: 0}
  m_PrefabAsset: {fileID: 0}
  m_GameObject: {fileID: 0}
  m_Enabled: 1
  m_EditorHideFlags: 0
  m_Script: {fileID: 11500000, guid: c3f3b576d1c44b88ae6a8184d2bfbc26, type: 3}
  m_Name: Well Data
  m_EditorClassIdentifier: 
  buildingType: 0
  prefab: {fileID: 8793695768821999390, guid: 9d54e0cff6b04084d9810a56aa2ad2f4, type: 3}
  buildingName: Well
  requiredCellContent: 1
  size: {x: 2, y: 2}
  entrancePivot: {x: 1, y: 0, z: 0}
  requiredResources:
  - type: 0
    amount: 10
  - type: 1
    amount: 100
